 . . . L .
 . . . . .
 L . . . L
 . . . L .
 . . L . .
 . L . . .
 L . . . L
 . . . L .
 . . L . .
 . L . . U
 . . . . .
 . . . . .
 . . . . D
 . . . . .
 L . . . .
 L . . . .
 . . L . .
 . L U . .
 . . . . .
 . . . . .
 U . . . .
 . . . . .
 . . . . .
 . . . . .
 U . . . .
 . . . . .
 . . . . .
 . L . . .
 . . . . .
 L . . . L
 . . . L .
 . . L . .
 . L . . .
 . . . . .
 . . . . .
 . . . . .
 . . . . .
 . . . . .
 . . . . .
 . . . . .
 . . . . .
 . . . . .
 . . . . .
 . . . . .
 . . . . .
 . . . . .
 . . . . .
 . . . . .
 . . . . .
 . . . . .
 . . . . .
 . . . . .
 . . . . .
 . . . . .
 . . . . .
 . .